<?xml version="1.0" encoding="UTF-8" ?>
<!DOCTYPE svg PUBLIC "-//W3C//DTD SVG 1.1//EN" "http://www.w3.org/Graphics/SVG/1.1/DTD/svg11.dtd">
<svg width="260pt" height="240pt" viewBox="0 0 260 240" version="1.1" xmlns="http://www.w3.org/2000/svg">
<g id="#f7f7f7ff">
</g>
<g id="#000000ff">
<path fill="#ffffff" opacity="1.00" d=" M 113.15 0.00 L 115.20 0.00 C 121.23 5.62 128.34 11.18 136.99 11.27 C 146.61 11.73 153.87 4.06 163.01 2.57 C 167.60 2.65 171.86 4.77 176.40 5.25 C 186.35 6.54 196.88 6.21 206.04 10.90 C 211.14 13.30 214.90 18.17 220.62 19.32 C 233.56 22.19 246.75 24.10 260.00 24.67 L 260.00 31.53 C 258.14 35.71 256.05 39.78 253.71 43.71 C 249.93 50.12 244.02 55.10 241.22 62.11 C 240.21 65.07 237.98 67.22 235.19 68.53 C 234.90 65.60 234.72 62.67 234.51 59.74 C 231.76 61.23 229.14 63.08 226.11 64.00 C 224.20 62.78 222.69 61.07 221.10 59.49 C 219.11 60.30 217.15 61.30 215.00 61.64 C 212.61 61.21 210.81 59.34 208.83 58.06 C 206.61 59.31 204.43 60.69 202.00 61.50 C 199.55 59.93 197.86 57.50 196.05 55.28 C 193.79 57.34 191.42 59.28 188.88 60.99 C 187.85 57.64 187.27 54.19 186.71 50.74 C 183.94 53.34 180.92 55.90 179.26 59.39 C 177.02 63.87 179.32 70.16 184.19 71.70 C 186.30 71.45 188.14 70.27 190.04 69.41 C 193.23 70.96 196.76 71.25 200.19 71.91 C 201.33 74.04 201.82 76.44 202.52 78.74 C 205.29 77.65 208.06 76.57 210.86 75.57 C 211.89 77.23 212.92 78.91 213.93 80.59 C 215.38 79.78 216.83 78.97 218.30 78.18 C 219.52 79.57 220.69 81.05 222.14 82.22 C 225.04 80.53 227.34 78.03 229.96 75.95 C 229.11 82.79 224.54 88.30 223.02 94.93 C 221.59 100.77 217.29 105.17 213.36 109.46 C 213.16 107.38 212.97 105.31 212.79 103.24 C 209.34 102.35 205.74 101.45 202.93 99.12 C 199.37 96.33 195.68 93.21 190.99 92.71 C 180.79 91.49 170.28 98.27 167.17 108.07 C 164.53 114.92 166.10 122.27 166.56 129.34 C 163.80 125.80 161.97 121.68 159.92 117.72 C 158.64 118.89 156.97 119.85 156.43 121.60 C 155.01 125.70 153.81 129.90 152.87 134.13 C 151.91 138.52 152.96 142.98 153.42 147.36 C 150.40 143.51 147.97 139.25 144.97 135.39 C 141.20 140.90 137.96 146.87 136.23 153.35 C 134.92 158.17 135.32 163.21 135.53 168.13 C 133.36 166.50 131.23 164.82 129.05 163.21 C 124.63 174.53 120.73 186.14 118.83 198.18 C 117.01 196.81 115.22 195.41 113.40 194.05 C 108.57 202.38 106.88 211.93 104.26 221.06 C 100.19 210.35 99.99 198.75 99.62 187.45 C 92.89 188.95 87.86 193.80 82.51 197.79 C 81.88 193.58 81.55 189.33 81.03 185.11 C 74.73 186.03 68.17 187.35 62.04 184.85 C 64.79 178.29 68.34 172.03 70.06 165.08 C 64.46 166.18 58.43 168.29 53.04 165.26 C 56.33 158.20 61.62 152.06 63.20 144.26 C 60.71 143.58 58.20 142.94 55.70 142.29 C 57.23 137.78 59.91 133.82 62.79 130.07 C 60.96 126.11 61.24 121.75 61.75 117.54 C 56.33 119.01 50.97 120.85 45.33 121.29 C 45.14 116.62 45.46 111.96 45.67 107.30 C 40.52 107.13 35.08 108.60 30.16 106.61 C 28.53 100.94 32.11 95.40 33.36 89.96 C 27.40 91.27 21.25 93.44 15.10 92.01 C 8.69 90.52 3.93 85.48 0.00 80.50 L 0.00 77.34 C 3.82 79.20 7.70 81.06 11.85 82.06 C 17.30 83.26 22.95 82.78 28.43 81.98 C 24.32 79.58 19.87 77.78 16.01 74.98 C 12.74 72.63 10.25 69.42 7.89 66.20 C 22.99 67.92 39.01 71.26 53.62 65.28 C 47.22 62.37 39.72 61.42 34.57 56.22 C 45.48 53.50 57.44 54.83 67.51 49.12 C 60.49 46.09 52.66 44.54 46.74 39.40 C 59.50 39.80 72.80 40.13 84.67 34.63 C 79.27 30.57 71.26 29.36 68.65 22.33 C 76.77 24.93 85.30 27.73 93.90 25.75 C 95.65 25.11 98.76 25.43 99.04 23.05 C 95.41 17.53 88.99 13.80 87.70 6.87 C 97.68 10.97 108.07 14.74 119.05 14.44 C 116.79 9.75 114.73 4.97 113.15 0.00 M 194.32 23.22 C 191.62 23.75 188.94 24.45 186.38 25.45 C 186.40 25.75 186.44 26.35 186.47 26.65 C 191.68 29.09 197.50 29.81 203.09 30.94 C 206.03 32.04 205.87 27.97 204.72 26.38 C 202.90 22.49 197.95 22.39 194.32 23.22 Z" />
</g>
</svg>
